{
    "A fast and open replacement for Windows and macOS": "विंडोज आणि मॅकअोएसला एक वेगवान व मुक्त पर्याय",
    "Pay What You Want:": "तुम्हाला हवी तेवढी रक्कम द्या:",
    "Custom": "स्वेच्छा",
    "Enter any dollar amount.": "कोणतीही डाॅलर रक्कम टाका.",
    "Purchase elementary OS": "एलिमेंटरी अोएस विकत घ्या",
    "0.4.1 Loki | 1.36 GB (for PC or Mac)": "०.४.१ लोकी | १.३६ जीबी (पीसी किंवा मॅककरिता)",
    "What the press is saying about elementary OS:": "एलिमेंटरी अोएसबद्दल वर्तमानपत्रे काय म्हणत आहेत:",
    "&ldquo;elementary OS is different… a beautiful and powerful operating system that will run well even on old PCs&rdquo;": "&ldquo एलिमेंटरी अोएस वेगळी आहे... एक सुंदर व जबरदस्त आॅपरेटींग सिस्टिम जी अगदी जुन्या पीसीवर देखील चांगली चालेल ;&rdquo;",
    "&ldquo;a fast, low-maintenance platform that can be installed virtually anywhere&rdquo;": "&ldquo; एक वेगवान व कमी देखभाल लागणारा प्लॅटफाॅर्म जो व्हर्चुअली कोठेही इनस्टाॅल केला जाऊ शकतो &rdquo;",
    "&ldquo;Lightweight and fast… Completely community-based, and has a real flair for design and appearances.&rdquo;": "&ldquo;हलका आणि वेगवान... पुर्णतः कम्युनिटीआधारित, डिजाइन व अपिअरन्सची खरी प्रतिभा यात आहे&rdquo;",
    "elementary appcenter categories": "एलिमेंटरी अनुप्रयोग केंद्र श्रेण्या",
    "The Indie, Open Source App Store": "बहारदार, अोपन सोर्स अनुप्रयोग भांडार",
    "AppCenter delivers native, Open Source apps to elementary OS. Quickly discover new apps and easily update the ones you already have. Plus, support indie developers directly through pay-what-you-want purchases.": "अॅपसेंटर एलिमेंटरी अोएसला मुळ, अोपन सोर्स अनुप्रयोग पुरवतं. नवीन अनुप्रयोग लगेच उलगडा आणि तुमच्या जवळचे सहज अद्ययावत करा. शिवाय, हवी तेवढी रक्कम देवून केलेक्या खरेदितून विकसकांना थेट आधार द्या.",
    "Become a Developer": "विकसक बना",
    "Task finished": "कार्य समाप्त",
    "Apps You Need, Without Ones You Don't.": "तुमच्या गरजेचे अनुप्रयोग, ज्यांशिवाय तुम्ही अशक्य.",
    "elementary OS ships with a carefully curated selection of apps that cater to every day needs so you can spend more time using your computer and less time cleaning up bloatware.": "काळजीपूर्वक निवडलेल्या अनुप्रयोगांसोबत एलिमेंटरी अोएस निघते जे तुमच्या दैनंदिन गरजा पुरवितात जेणे करुन ब्लोटवेअर साफ करत बसण्यापेक्षा तुम्ही अधिक काळ संगणक वापरण्यात व्यतित करू शकाल.",
    "Music": "संगीत",
    "Epiphany": "इपिफनी",
    "Mail": "पत्र",
    "Photos": "छायाचित्रे",
    "Videos": "व्हिडीअोज्",
    "Calendar": "दिनदर्शिका",
    "Files": "फाईल्स",
    "Terminal": "टर्मिनल",
    "Scratch": "स्क्रॅच",
    "Camera": "कॅमेरा",
    "music screenshot": "म्युझीक स्क्रीनशाॅट",
    "music icon": "म्युझीक आयकाॅन",
    "Organize and listen to your music. Browse by albums, use lightning-fast search, and build playlists of your favorites.": "तुमचं संगीत सुटसुटीत पणे ठेवा आणि ऐका. अल्बमनुसार ब्राऊज करा, अत्यंत वेगवान सर्चचा वापर करा, आणि तुमच्या आवडीची प्लेलिस्ट बनवा.",
    "epiphany screenshot": "इपीफनी स्क्रीनशाॅट",
    "epiphany icon": "इपीफनी आयकाॅन",
    "Surf the web with a fast &amp; lightweight web browser. Epiphany lets you use HTML5 websites and web apps while being lighter on battery life.": "वेगवान व हलक्या वेब ब्राउजर सोबत वेब सर्फ करा. इपीफनी तुम्हाला एचटीएमएल फाइव्ह सऩकेतस्थळं व वेब अॅप्स वापरू देतं तेही बॅटरीवर परिणाम न करता.",
    "mail screenshot": "पत्र स्क्रीनशाॅट",
    "mail icon": "पत्र आयकाॅन",
    "Manage multiple accounts quickly and effortlessly with conversation-based mail, fast-as-you-type search, new mail notifications, and more.": "",
    "photos screenshot": "छायाचित्रे स्क्रीनशाॅट",
    "photos icon": "छायाचित्रे आयकाॅन",
    "Import, organize, and edit photos. Make a slideshow. Share with Facebook or Flickr.": "छायाचित्रे इम्पोर्ट, आॅरगनाइज आणि संपादित करा. स्लाईड शो बनवा. फेसबूक किंवा फ्लिकर वर शेअर करा.",
    "videos screenshot": "व्हिडीअोज स्क्रीनशाॅट",
    "videos icon": "व्हिडीअोज आयकाॅन",
    "Smart and simple video viewing with thumbnail previews on the seekbar, playlists, subtitle support, and even the ability to resume what was last playing.": "",
    "calendar screenshot": "",
    "calendar icon": "",
    "Easily view and create events. Sync with Online Accounts like Google.": "",
    "files screenshot": "",
    "files icon": "",
    "The smart pathbar makes it easy to browse with breadcrumbs, search, or path completion. Quickly navigate with the column view and enjoy browser-class tabs with smart features like tab history.": "",
    "terminal screenshot": "",
    "elementary Symbolic Icon Theme": "",
    "Home": "",
    "terminal icon": "",
    "With a color scheme designed to prevent eye strain, browser-class tabs with history and smart naming, task-completion notifications, natural copy &amp; paste, backlog search and more, who says you can't teach an old app new tricks?": "",
    "scratch screenshot": "",
    "scratch icon": "",
    "With a folder sidebar, multiple panes, and extensions like Terminal, Web Preview, Indentation Detection, and Vim Emulation, Scratch will be the last text editor you'll ever need.": "",
    "camera screenshot": "",
    "camera icon": "",
    "Easily snap pictures or video from a built-in webcam.": "",
    "3 Ways to Explore": "",
    "Grid": "",
    "Display all your apps in an alphabetized grid. Flick through and find the one you want.": "",
    "Categories": "",
    "View your apps automatically organized into categories. Perfect for large collections.": "",
    "Search": "",
    "Launch apps, open settings panes, run commands, and more from the lightning fast search view.": "",
    "Open Source": "मुक्त स्रोत",
    "Our code is available for review, scrutiny, modification, and redistribution by anyone.": "",
    "Learn More": "",
    "No Ads. No Spying.": "ना जाहिराती. ना हेरगिरी.",
    "We don't make advertising deals and we don't collect sensitive personal data. Our only income is directly from our users.": "",
    "Safe &amp; Secure": "",
    "We're built on Linux: the same software powering the U.S Department of Defense, the Bank of China, and more.": "",
    "Security Notices": "",
    "Download elementary OS": "एलिमेंटरी अोएस डाउनलोड करा",
    "Pay What You Want": "तुम्हाला हवी तेवढी रक्कम द्या",
    "Download elementary OS icon": "डाऊनलोड एलिमेंटरी अोएस आयकाॅन",
    "Choose a Download": "डाऊनलोड निवडा",
    "Download from a localized server or by magnet link. For help and more info, see the": "",
    "installation guide": "इन्स्टाॅलेशन मार्गदर्शक",
    "Cancel": "रद्द करा",
    "Download": "डाऊनलोड",
    "Torrent Magnet Link": "टाॅरंट मॅग्नेट लिंक",
    "A fast and open replacement for Windows and macOS &sdot; elementary OS": "विंडोज आणि मॅकअोएसला एक वेगवान व अोपनसोर्स पर्याय"
}
